<svg width="48.948mm" height="48.948mm" version="1.1" viewBox="0 0 48.948 48.948" xmlns="http://www.w3.org/2000/svg" xmlns:xlink="http://www.w3.org/1999/xlink">
 <defs>
  <linearGradient id="linearGradient864" x1="120.79" x2="147.41" y1="49.632" y2="72.382" gradientUnits="userSpaceOnUse">
   <stop stop-color="#0e171f" offset="0"/>
   <stop stop-color="#3b5366" offset="1"/>
  </linearGradient>
 </defs>
 <g transform="translate(-76.729 -29.104)">
  <rect x="76.729" y="29.104" width="48.948" height="48.948" fill="#d8aa6d"/>
  <rect x="97.896" y="29.104" width="6.6146" height="48.948" fill="#6c4e2d"/>
  <rect transform="rotate(90)" x="50.271" y="-125.68" width="6.6146" height="48.948" fill="#6c4e2d"/>
  <ellipse cx="101.2" cy="53.389" rx="24.474" ry="24.285" fill="url(#linearGradient864)"/>
 </g>
</svg>
